C:\Users\Osvaldo\Bitbucket\Pruebas\nssql\src\main\java\com\ks\PoolConnection.java
C:\Users\Osvaldo\Bitbucket\Pruebas\nssql\src\main\java\com\ks\ThreadSimulator.java
C:\Users\Osvaldo\Bitbucket\Pruebas\nssql\src\main\java\com\ks\App.java
